{
    "author": "CRTOLEDO",
    "GPSRadio":"00.03",
    "mailList":["crtoledo@wutz.co.uk.com","cristiantoledo@gmail.com"],
    "lastFMToken":"a2ab3079fb2ae96493f20f9158fc309e",
    "lastFMUrl":"http://ws.audioscrobbler.com/2.0/?",
    "lastFMAppName":"Wutz",
    "lastFMShareSecret":"aea34e91d5905b99ae6c79b4d693ae02",
    "lastFMUrl":"http://ws.audioscrobbler.com/2.0/?",
    "lastFMRegisterTo":"crtoledo_cl"
}
